Chinese translated version of Documentation/stable_api_nonsense.txt

If you have any comment or update to the content, please contact the
original document maintainer directly.  However, if you have problem
communicating in English you can also ask the Chinese maintainer for help.
Contact the Chinese maintainer, if this translation is outdated or there
is problem with translation.

Maintainer: Greg Kroah-Hartman <greg@kroah.com>
Chinese maintainer: TripleX Chung <zhongyu@18mail.cn>
---------------------------------------------------------------------
Documentation/stable_api_nonsense.txt çä¸­æç¿»è¯

å¦ææ³è¯è®ºææ´æ°æ¬æçåå®¹ï¼è¯·ç´æ¥èç³»åææ¡£çç»´æ¤èãå¦æä½ ä½¿ç¨è±æ
äº¤æµæå°é¾çè¯ï¼ä¹å¯ä»¥åä¸­æçç»´æ¤èæ±å©ãå¦ææ¬ç¿»è¯æ´æ°ä¸åæ¶æèç¿»
è¯å­å¨é®é¢ï¼è¯·èç³»ä¸­æçç»´æ¤èã

è±æçç»´æ¤èï¼ Greg Kroah-Hartman <greg@kroah.com>
ä¸­æçç»´æ¤èï¼ éå®  TripleX Chung <zhongyu@18mail.cn>
ä¸­æçç¿»è¯èï¼ éå®  TripleX Chung <zhongyu@18mail.cn>
ä¸­æçæ ¡è¯èï¼ æé³  Li Yang <leoli@freescale.com>
ä»¥ä¸ä¸ºæ­£æ
---------------------------------------------------------------------

åä½æ¬ææ¡£çç®çï¼æ¯ä¸ºäºè§£éä¸ºä»ä¹Linuxæ¢æ²¡æäºè¿å¶åæ ¸æ¥å£ï¼ä¹æ²¡æç¨³å®
çåæ ¸æ¥å£ãè¿éæè¯´çåæ ¸æ¥å£ï¼æ¯æåæ ¸éçæ¥å£ï¼èä¸æ¯åæ ¸åç¨æ·ç©ºé´
çæ¥å£ãåæ ¸å°ç¨æ·ç©ºé´çæ¥å£ï¼æ¯æä¾ç»åºç¨ç¨åºä½¿ç¨çç³»ç»è°ç¨ï¼ç³»ç»è°ç¨
å¨åå²ä¸å ä¹æ²¡æè¿ååï¼å°æ¥ä¹ä¸ä¼æååãææä¸äºèåºç¨ç¨åºæ¯å¨0.9çæ¬
æèæ´æ©çæ¬çåæ ¸ä¸ç¼è¯çï¼å¨ä½¿ç¨2.6çæ¬åæ ¸çLinuxåå¸ä¸ä¾ç¶ç¨å¾å¾å¥½
ãç¨æ·ååºç¨ç¨åºä½èå¯ä»¥å°è¿ä¸ªæ¥å£çææ¯ç¨³å®çã


æ§è¡çº²è¦
--------

ä½ ä¹è®¸ä»¥ä¸ºèªå·±æ³è¦ç¨³å®çåæ ¸æ¥å£ï¼ä½æ¯ä½ ä¸æ¸æ¥ä½ è¦çå®éä¸ä¸æ¯å®ãä½ é
è¦çå¶å®æ¯ç¨³å®çé©±å¨ç¨åºï¼èä½ åªæå°é©±å¨ç¨åºæ¾å°å¬çåæ ¸çæºä»£ç æ éï¼
ææå¯è½è¾¾å°è¿ä¸ªç®çãèä¸è¿æ ·åè¿æå¾å¤å¶å®å¥½å¤ï¼æ­£æ¯å ä¸ºè¿äºå¥½å¤ä½¿å¾
Linuxè½æä¸ºå¼ºå£®ï¼ç¨³å®ï¼æççæä½ç³»ç»ï¼è¿ä¹æ¯ä½ æå¼å§éæ©Linuxçåå ã


å¥é¨
-----

åªæé£äºåé©±å¨ç¨åºçâæªäººâæä¼æå¿åæ ¸æ¥å£çæ¹åï¼å¯¹å¹¿å¤§ç¨æ·æ¥è¯´ï¼æ¢
çä¸å°åæ ¸æ¥å£ï¼ä¹ä¸éè¦å»å³å¿å®ã

é¦åï¼æä¸æç®è®¨è®ºå³äºä»»ä½éGPLè®¸å¯çåæ ¸é©±å¨çæ³å¾é®é¢ï¼è¿äºéGPLè®¸å¯
çé©±å¨ç¨åºåæ¬ä¸å¬å¼æºä»£ç ï¼éèæºä»£ç ï¼äºè¿å¶æèæ¯ç¨æºä»£ç åè£ï¼æè
æ¯å¶å®ä»»ä½å½¢å¼çä¸è½ä»¥GPLè®¸å¯å¬å¼æºä»£ç çé©±å¨ç¨åºãå¦æææ³å¾é®é¢ï¼è¯·å¨
è¯¢å¾å¸ï¼æåªæ¯ä¸ä¸ªç¨åºåï¼æä»¥æåªæç®æ¢è®¨ææ¯é®é¢ï¼ä¸æ¯å°çæ³å¾é®é¢ï¼
æ³å¾é®é¢å¾å®éï¼å¹¶ä¸éè¦ä¸ç´å³æ³¨ï¼ã

æ¢ç¶åªè°ææ¯é®é¢ï¼æä»¬å°±æäºä¸é¢ä¸¤ä¸ªä¸»é¢ï¼äºè¿å¶åæ ¸æ¥å£åç¨³å®çåæ ¸æº
ä»£ç æ¥å£ãè¿ä¸¤ä¸ªé®é¢æ¯äºç¸å³èçï¼è®©æä»¬åè§£å³æäºè¿å¶æ¥å£çé®é¢ã


äºè¿å¶åæ ¸æ¥å£
--------------
åå¦æä»¬æä¸ä¸ªç¨³å®çåæ ¸æºä»£ç æ¥å£ï¼é£ä¹èªç¶èç¶çï¼æä»¬å°±æ¥æäºç¨³å®ç
äºè¿å¶æ¥å£ï¼æ¯è¿æ ·çåï¼éãè®©æä»¬ççå³äºLinuxåæ ¸çå ç¹äºå®ï¼
    - åå³äºæç¨çCç¼è¯å¨ççæ¬ï¼ä¸åçåæ ¸æ°æ®ç»æéçç»æä½çå¯¹é½æ¹
å¼ä¼æå·®å«ï¼ä»£ç ä¸­ä¸åå½æ°çè¡¨ç°å½¢å¼ä¹ä¸ä¸æ ·ï¼å½æ°æ¯ä¸æ¯è¢«inlineç¼è¯å
å³äºç¼è¯å¨è¡ä¸ºï¼ãä¸åçå½æ°çè¡¨ç°å½¢å¼å¹¶ä¸éè¦ï¼ä½æ¯æ°æ®ç»æåé¨çå¯¹é½
æ¹å¼å¾å³é®ã
    - åå³äºåæ ¸çéç½®éé¡¹ï¼ä¸åçéé¡¹ä¼è®©åæ ¸çå¾å¤ä¸è¥¿åçæ¹åï¼
      - åä¸ä¸ªç»æä½å¯è½åå«ä¸åçæååé
      - æçå½æ°å¯è½æ ¹æ¬ä¸ä¼è¢«å®ç°ï¼æ¯å¦ç¼è¯çæ¶åæ²¡æéæ©SMPæ¯æ
ï¼ä¸äºéå½æ°å°±ä¼è¢«å®ä¹æç©ºå½æ°ï¼ã
      - åæ ¸ä½¿ç¨çåå­ä¼ä»¥ä¸åçæ¹å¼å¯¹é½ï¼è¿åå³äºä¸åçåæ ¸éç½®é
é¡¹ã
    - Linuxå¯ä»¥å¨å¾å¤çä¸åä½ç³»ç»æçå¤çå¨ä¸è¿è¡ãå¨æä¸ªä½ç³»ç»æä¸ç¼
è¯å¥½çäºè¿å¶é©±å¨ç¨åºï¼ä¸å¯è½å¨å¦å¤ä¸ä¸ªä½ç³»ç»æä¸æ­£ç¡®çè¿è¡ã

å¯¹äºä¸ä¸ªç¹å®çåæ ¸ï¼æ»¡è¶³è¿äºæ¡ä»¶å¹¶ä¸é¾ï¼ä½¿ç¨åä¸ä¸ªCç¼è¯å¨ååæ ·çåæ ¸é
ç½®éé¡¹æ¥ç¼è¯é©±å¨ç¨åºæ¨¡åå°±å¯ä»¥äºãè¿å¯¹äºç»ä¸ä¸ªç¹å®Linuxåå¸çç¹å®çæ¬æ
ä¾é©±å¨ç¨åºï¼æ¯å®å¨å¯ä»¥æ»¡è¶³éæ±çãä½æ¯å¦æä½ è¦ç»ä¸ååå¸çä¸åçæ¬é½å
å¸ä¸ä¸ªé©±å¨ç¨åºï¼å°±éè¦å¨æ¯ä¸ªåå¸ä¸ç¨ä¸åçåæ ¸è®¾ç½®åæ°é½ç¼è¯ä¸æ¬¡åæ ¸ï¼
è¿ç®ç´è·å©æ¢¦ä¸æ ·ãèä¸è¿è¦æ³¨æå°ï¼æ¯ä¸ªLinuxåå¸è¿æä¾ä¸åçLinuxåæ ¸ï¼
è¿äºåæ ¸é½éå¯¹ä¸åçç¡¬ä»¶ç±»åè¿è¡äºä¼åï¼æå¾å¤ç§ä¸åçå¤çå¨ï¼è¿æä¸å
çåæ ¸è®¾ç½®éé¡¹ï¼ãæä»¥æ¯åå¸ä¸æ¬¡é©±å¨ç¨åºï¼é½éè¦æä¾å¾å¤ä¸åçæ¬çåæ ¸
æ¨¡åã

ç¸ä¿¡æï¼å¦æä½ ççè¦éåè¿ç§åå¸æ¹å¼ï¼ä¸å®ä¼æ¢æ¢ç¯æï¼æå¾ä¹ä»¥åå°±æè¿
æ·±å»çæè®­...


ç¨³å®çåæ ¸æºä»£ç æ¥å£
--------------------

å¦ææäººä¸å°ä»çåæ ¸é©±å¨ç¨åºï¼æ¾å¥å¬çåæ ¸çæºä»£ç æ ï¼èåæ³è®©é©±å¨ç¨åº
ä¸ç´ä¿æå¨ææ°çåæ ¸ä¸­å¯ç¨ï¼é£ä¹è¿ä¸ªè¯é¢å°ä¼åå¾æ²¡å®æ²¡äºã
 åæ ¸å¼åæ¯æç»­èä¸å¿«èå¥çï¼ä»æ¥é½ä¸ä¼æ¢ä¸æ¥ãåæ ¸å¼åäººåå¨å½åæ¥å£ä¸­
æ¾å°bugï¼æèæ¾å°æ´å¥½çå®ç°æ¹å¼ãä¸æ¦åç°è¿äºï¼ä»ä»¬å°±å¾å¿«ä¼å»ä¿®æ¹å½åç
æ¥å£ãä¿®æ¹æ¥å£æå³çï¼å½æ°åå¯è½ä¼æ¹åï¼ç»æä½å¯è½è¢«æ©åæèå åï¼å½æ°
çåæ°ä¹å¯è½åçæ¹åãä¸æ¦æ¥å£è¢«ä¿®æ¹ï¼åæ ¸ä¸­ä½¿ç¨è¿äºæ¥å£çå°æ¹éè¦åæ¶
ä¿®æ­£ï¼è¿æ ·æè½ä¿è¯ææçä¸è¥¿ç»§ç»­å·¥ä½ã

ä¸¾ä¸ä¸ªä¾å­ï¼åæ ¸çUSBé©±å¨ç¨åºæ¥å£å¨USBå­ç³»ç»çæ´ä¸ªçå½å¨æä¸­ï¼è³å°ç»å
äºä¸æ¬¡éåãè¿äºéåè§£å³ä»¥ä¸é®é¢ï¼
    - ææ°æ®æµä»åæ­¥æ¨¡å¼æ¹æéåæ­¥æ¨¡å¼ï¼è¿ä¸ªæ¹å¨åå°äºä¸äºé©±å¨ç¨åºç
å¤æåº¦ï¼æé«äºææUSBé©±å¨ç¨åºçååçï¼è¿æ ·å ä¹ææçUSBè®¾å¤é½è½ä»¥æå¤§
éçå·¥ä½äºã
    - ä¿®æ¹äºUSBæ ¸å¿ä»£ç ä¸­ä¸ºUSBé©±å¨åéæ°æ®ååå­çæ¹å¼ï¼ææçé©±å¨é½
éè¦æä¾æ´å¤çåæ°ç»USBæ ¸å¿ï¼ä»¥ä¿®æ­£äºå¾å¤å·²ç»è¢«è®°å½å¨æ¡çæ­»éã

è¿åä¸äºå°é­æºä»£ç çæä½ç³»ç»å½¢æé²æçå¯¹æ¯ï¼å¨é£äºæä½ç³»ç»ä¸ï¼ä¸å¾ä¸é¢
å¤çç»´æ¤æ§çUSBæ¥å£ãè¿å¯¼è´äºä¸ä¸ªå¯è½æ§ï¼æ°çå¼åèä¾ç¶ä¼ä¸å°å¿ä½¿ç¨æ§ç
æ¥å£ï¼ä»¥ä¸æ°å½çæ¹å¼ç¼åä»£ç ï¼è¿èå½±åå°æä½ç³»ç»çç¨³å®æ§ã
 å¨ä¸é¢çä¾å­ä¸­ï¼ææçå¼åèé½åæè¿äºéè¦çæ¹å¨ï¼å¨è¿æ ·çæåµä¸ä¿®æ¹ä»£
ä»·å¾ä½ãå¦æLinuxä¿æä¸ä¸ªç¨³å®çåæ ¸æºä»£ç æ¥å£ï¼é£ä¹å°±å¾åå»ºä¸ä¸ªæ°çæ¥å£
ï¼æ§çï¼æé®é¢çæ¥å£å¿é¡»ä¸ç´ç»´æ¤ï¼ç»Linux USBå¼åèå¸¦æ¥é¢å¤çå·¥ä½ãæ¢ç¶
ææçLinux USBé©±å¨çä½èé½æ¯å©ç¨èªå·±çæ¶é´å·¥ä½ï¼é£ä¹è¦æ±ä»ä»¬å»åæ¯«æ æ
ä¹çåè´¹é¢å¤å·¥ä½ï¼æ¯ä¸å¯è½çã
 å®å¨é®é¢å¯¹Linuxæ¥è¯´ååéè¦ãä¸ä¸ªå®å¨é®é¢è¢«åç°ï¼å°±ä¼å¨ç­æ¶é´åå¾å°ä¿®
æ­£ãå¨å¾å¤æåµä¸ï¼è¿å°å¯¼è´Linuxåæ ¸ä¸­çä¸äºæ¥å£è¢«éåï¼ä»¥ä»æ ¹æ¬ä¸é¿åå®
å¨é®é¢ãä¸æ¦æ¥å£è¢«éåï¼ææä½¿ç¨è¿äºæ¥å£çé©±å¨ç¨åºï¼å¿é¡»åæ¶å¾å°ä¿®æ­£ï¼
ä»¥ç¡®å®å®å¨é®é¢å·²ç»å¾å°ä¿®å¤å¹¶ä¸ä¸å¯è½å¨æªæ¥è¿æåæ ·çå®å¨é®é¢ãå¦æåæ ¸
åé¨æ¥å£ä¸åè®¸æ¹åï¼é£ä¹å°±ä¸å¯è½ä¿®å¤è¿æ ·çå®å¨é®é¢ï¼ä¹ä¸å¯è½ç¡®è®¤è¿æ ·ç
å®å¨é®é¢ä»¥åä¸ä¼åçã
å¼åèä¸ç´å¨æ¸çåæ ¸æ¥å£ãå¦æä¸ä¸ªæ¥å£æ²¡æäººå¨ä½¿ç¨äºï¼å®å°±ä¼è¢«å é¤ãè¿
æ ·å¯ä»¥ç¡®ä¿åæ ¸å°½å¯è½çå°ï¼èä¸æææ½å¨çæ¥å£é½ä¼å¾å°å°½å¯è½å®æ´çæµè¯
ï¼æ²¡æäººä½¿ç¨çæ¥å£æ¯ä¸å¯è½å¾å°è¯å¥½çæµè¯çï¼ã


è¦åä»ä¹
-------

å¦æä½ åäºä¸ä¸ªLinuxåæ ¸é©±å¨ï¼ä½æ¯å®è¿ä¸å¨Linuxæºä»£ç æ éï¼ä½ä¸ºä¸ä¸ªå¼å
èï¼ä½ åºè¯¥æä¹åï¼ä¸ºæ¯ä¸ªåå¸çæ¯ä¸ªçæ¬æä¾ä¸ä¸ªäºè¿å¶é©±å¨ï¼é£ç®ç´æ¯ä¸ä¸ª
å©æ¢¦ï¼è¦è·ä¸æ°¸è¿å¤äºååä¹ä¸­çåæ ¸æ¥å£ï¼ä¹æ¯ä¸ä»¶è¾è¦æ´»ã
å¾ç®åï¼è®©ä½ çé©±å¨è¿å¥åæ ¸æºä»£ç æ ï¼è¦è®°å¾æä»¬å¨è°è®ºçæ¯ä»¥GPLè®¸å¯åè¡
çé©±å¨ï¼å¦æä½ çä»£ç ä¸ç¬¦åGPLï¼é£ä¹ç¥ä½ å¥½è¿ï¼ä½ åªè½èªå·±è§£å³è¿ä¸ªé®é¢äºï¼
ä½ è¿ä¸ªå¸è¡é¬¼<æAndrewåLinuså¯¹å¸è¡é¬¼çå®ä¹é¾æ¥å°è¿é>ï¼ãå½ä½ çä»£ç å å¥
å¬çåæ ¸æºä»£ç æ ä¹åï¼å¦æä¸ä¸ªåæ ¸æ¥å£æ¹åï¼ä½ çé©±å¨ä¼ç´æ¥è¢«ä¿®æ¹æ¥å£ç
é£ä¸ªäººä¿®æ¹ãä¿è¯ä½ çé©±å¨æ°¸è¿é½å¯ä»¥ç¼è¯éè¿ï¼å¹¶ä¸ä¸ç´å·¥ä½ï¼ä½ å ä¹ä¸éè¦
åä»ä¹äºæã

æé©±å¨æ¾å°åæ ¸æºä»£ç æ éä¼æå¾å¤çå¥½å¤ï¼
    - é©±å¨çè´¨éä¼æåï¼èç»´æ¤ææ¬ï¼å¯¹åå§ä½èæ¥è¯´ï¼ä¼ä¸éã
    - å¶ä»äººä¼ç»é©±å¨æ·»å æ°ç¹æ§ã
    - å¶ä»äººä¼æ¾å°é©±å¨ä¸­çbugå¹¶ä¿®å¤ã
    - å¶ä»äººä¼å¨é©±å¨ä¸­æ¾å°æ§è½ä¼åçæºä¼ã
    - å½å¤é¨çæ¥å£çæ¹åéè¦ä¿®æ¹é©±å¨ç¨åºçæ¶åï¼å¶ä»äººä¼ä¿®æ¹é©±å¨ç¨åº
ã
    - ä¸éè¦èç³»ä»»ä½åè¡åï¼è¿ä¸ªé©±å¨ä¼èªå¨çéçææçLinuxåå¸ä¸èµ·å
å¸ã

åå«çæä½ç³»ç»ç¸æ¯ï¼Linuxä¸ºæ´å¤ä¸åçè®¾å¤æä¾ç°æçé©±å¨ï¼èä¸è½å¨æ´å¤ä¸
åä½ç³»ç»æçå¤çå¨ä¸æ¯æè¿äºè®¾å¤ãè¿ä¸ªç»è¿èéªçå¼åæ¨¡å¼ï¼å¿ç¶æ¯éä¸äº
ç :)

-------------
æè°¢ Randy Dunlap, Andrew Morton, David Brownell, Hanna Linder,
Robert Love, and Nishanth Aravamudan å¯¹äºæ¬ææ¡£æ©æçæ¬çè¯å®¡åå»ºè®®ã

è±æçç»´æ¤èï¼ Greg Kroah-Hartman <greg@kroah.com>
